{
    "swagger": "2.0",
    "info": {
        "title": "Laravel Generator APIs",
        "version": "1.0.0"
    },
    "basePath": "/api/v1",
    "paths": {
        "/bids": {
            "get": {
                "tags": [
                    "Bid"
                ],
                "summary": "Get a listing of the Bids.",
                "description": "Get all Bids",
                "produces": [
                    "application/json"
                ],
                "responses": {
                    "200": {
                        "description": "successful operation",
                        "schema": {
                            "properties": {
                                "success": {
                                    "type": "boolean"
                                },
                                "data": {
                                    "type": "array",
                                    "items": {
                                        "$ref": "#/definitions/Bid"
                                    }
                                },
                                "message": {
                                    "type": "string"
                                }
                            },
                            "type": "object"
                        }
                    }
                }
            },
            "post": {
                "tags": [
                    "Bid"
                ],
                "summary": "Store a newly created Bid in storage",
                "description": "Store Bid",
                "produces": [
                    "application/json"
                ],
                "parameters": [
                    {
                        "name": "body",
                        "in": "body",
                        "description": "Bid that should be stored",
                        "required": false,
                        "schema": {
                            "$ref": "#/definitions/Bid"
                        }
                    }
                ],
                "responses": {
                    "200": {
                        "description": "successful operation",
                        "schema": {
                            "properties": {
                                "success": {
                                    "type": "boolean"
                                },
                                "data": {
                                    "$ref": "#/definitions/Bid"
                                },
                                "message": {
                                    "type": "string"
                                }
                            },
                            "type": "object"
                        }
                    }
                }
            }
        },
        "/bids/{id}": {
            "get": {
                "tags": [
                    "Bid"
                ],
                "summary": "Display the specified Bid",
                "description": "Get Bid",
                "produces": [
                    "application/json"
                ],
                "parameters": [
                    {
                        "name": "id",
                        "in": "path",
                        "description": "id of Bid",
                        "required": true,
                        "type": "integer"
                    }
                ],
                "responses": {
                    "200": {
                        "description": "successful operation",
                        "schema": {
                            "properties": {
                                "success": {
                                    "type": "boolean"
                                },
                                "data": {
                                    "$ref": "#/definitions/Bid"
                                },
                                "message": {
                                    "type": "string"
                                }
                            },
                            "type": "object"
                        }
                    }
                }
            },
            "put": {
                "tags": [
                    "Bid"
                ],
                "summary": "Update the specified Bid in storage",
                "description": "Update Bid",
                "produces": [
                    "application/json"
                ],
                "parameters": [
                    {
                        "name": "id",
                        "in": "path",
                        "description": "id of Bid",
                        "required": true,
                        "type": "integer"
                    },
                    {
                        "name": "body",
                        "in": "body",
                        "description": "Bid that should be updated",
                        "required": false,
                        "schema": {
                            "$ref": "#/definitions/Bid"
                        }
                    }
                ],
                "responses": {
                    "200": {
                        "description": "successful operation",
                        "schema": {
                            "properties": {
                                "success": {
                                    "type": "boolean"
                                },
                                "data": {
                                    "$ref": "#/definitions/Bid"
                                },
                                "message": {
                                    "type": "string"
                                }
                            },
                            "type": "object"
                        }
                    }
                }
            },
            "delete": {
                "tags": [
                    "Bid"
                ],
                "summary": "Remove the specified Bid from storage",
                "description": "Delete Bid",
                "produces": [
                    "application/json"
                ],
                "parameters": [
                    {
                        "name": "id",
                        "in": "path",
                        "description": "id of Bid",
                        "required": true,
                        "type": "integer"
                    }
                ],
                "responses": {
                    "200": {
                        "description": "successful operation",
                        "schema": {
                            "properties": {
                                "success": {
                                    "type": "boolean"
                                },
                                "data": {
                                    "type": "string"
                                },
                                "message": {
                                    "type": "string"
                                }
                            },
                            "type": "object"
                        }
                    }
                }
            }
        },
        "/presets": {
            "get": {
                "tags": [
                    "Preset"
                ],
                "summary": "Get a listing of the Presets.",
                "description": "Get all Presets",
                "produces": [
                    "application/json"
                ],
                "responses": {
                    "200": {
                        "description": "successful operation",
                        "schema": {
                            "properties": {
                                "success": {
                                    "type": "boolean"
                                },
                                "data": {
                                    "type": "array",
                                    "items": {
                                        "$ref": "#/definitions/Preset"
                                    }
                                },
                                "message": {
                                    "type": "string"
                                }
                            },
                            "type": "object"
                        }
                    }
                }
            },
            "post": {
                "tags": [
                    "Preset"
                ],
                "summary": "Store a newly created Preset in storage",
                "description": "Store Preset",
                "produces": [
                    "application/json"
                ],
                "parameters": [
                    {
                        "name": "body",
                        "in": "body",
                        "description": "Preset that should be stored",
                        "required": false,
                        "schema": {
                            "$ref": "#/definitions/Preset"
                        }
                    }
                ],
                "responses": {
                    "200": {
                        "description": "successful operation",
                        "schema": {
                            "properties": {
                                "success": {
                                    "type": "boolean"
                                },
                                "data": {
                                    "$ref": "#/definitions/Preset"
                                },
                                "message": {
                                    "type": "string"
                                }
                            },
                            "type": "object"
                        }
                    }
                }
            }
        },
        "/presets/{id}": {
            "get": {
                "tags": [
                    "Preset"
                ],
                "summary": "Display the specified Preset",
                "description": "Get Preset",
                "produces": [
                    "application/json"
                ],
                "parameters": [
                    {
                        "name": "id",
                        "in": "path",
                        "description": "id of Preset",
                        "required": true,
                        "type": "integer"
                    }
                ],
                "responses": {
                    "200": {
                        "description": "successful operation",
                        "schema": {
                            "properties": {
                                "success": {
                                    "type": "boolean"
                                },
                                "data": {
                                    "$ref": "#/definitions/Preset"
                                },
                                "message": {
                                    "type": "string"
                                }
                            },
                            "type": "object"
                        }
                    }
                }
            },
            "put": {
                "tags": [
                    "Preset"
                ],
                "summary": "Update the specified Preset in storage",
                "description": "Update Preset",
                "produces": [
                    "application/json"
                ],
                "parameters": [
                    {
                        "name": "id",
                        "in": "path",
                        "description": "id of Preset",
                        "required": true,
                        "type": "integer"
                    },
                    {
                        "name": "body",
                        "in": "body",
                        "description": "Preset that should be updated",
                        "required": false,
                        "schema": {
                            "$ref": "#/definitions/Preset"
                        }
                    }
                ],
                "responses": {
                    "200": {
                        "description": "successful operation",
                        "schema": {
                            "properties": {
                                "success": {
                                    "type": "boolean"
                                },
                                "data": {
                                    "$ref": "#/definitions/Preset"
                                },
                                "message": {
                                    "type": "string"
                                }
                            },
                            "type": "object"
                        }
                    }
                }
            },
            "delete": {
                "tags": [
                    "Preset"
                ],
                "summary": "Remove the specified Preset from storage",
                "description": "Delete Preset",
                "produces": [
                    "application/json"
                ],
                "parameters": [
                    {
                        "name": "id",
                        "in": "path",
                        "description": "id of Preset",
                        "required": true,
                        "type": "integer"
                    }
                ],
                "responses": {
                    "200": {
                        "description": "successful operation",
                        "schema": {
                            "properties": {
                                "success": {
                                    "type": "boolean"
                                },
                                "data": {
                                    "type": "string"
                                },
                                "message": {
                                    "type": "string"
                                }
                            },
                            "type": "object"
                        }
                    }
                }
            }
        },
        "/prices": {
            "get": {
                "tags": [
                    "Price"
                ],
                "summary": "Get a listing of the Prices.",
                "description": "Get all Prices",
                "produces": [
                    "application/json"
                ],
                "responses": {
                    "200": {
                        "description": "successful operation",
                        "schema": {
                            "properties": {
                                "success": {
                                    "type": "boolean"
                                },
                                "data": {
                                    "type": "array",
                                    "items": {
                                        "$ref": "#/definitions/Price"
                                    }
                                },
                                "message": {
                                    "type": "string"
                                }
                            },
                            "type": "object"
                        }
                    }
                }
            },
            "post": {
                "tags": [
                    "Price"
                ],
                "summary": "Store a newly created Price in storage",
                "description": "Store Price",
                "produces": [
                    "application/json"
                ],
                "parameters": [
                    {
                        "name": "body",
                        "in": "body",
                        "description": "Price that should be stored",
                        "required": false,
                        "schema": {
                            "$ref": "#/definitions/Price"
                        }
                    }
                ],
                "responses": {
                    "200": {
                        "description": "successful operation",
                        "schema": {
                            "properties": {
                                "success": {
                                    "type": "boolean"
                                },
                                "data": {
                                    "$ref": "#/definitions/Price"
                                },
                                "message": {
                                    "type": "string"
                                }
                            },
                            "type": "object"
                        }
                    }
                }
            }
        },
        "/prices/{id}": {
            "get": {
                "tags": [
                    "Price"
                ],
                "summary": "Display the specified Price",
                "description": "Get Price",
                "produces": [
                    "application/json"
                ],
                "parameters": [
                    {
                        "name": "id",
                        "in": "path",
                        "description": "id of Price",
                        "required": true,
                        "type": "integer"
                    }
                ],
                "responses": {
                    "200": {
                        "description": "successful operation",
                        "schema": {
                            "properties": {
                                "success": {
                                    "type": "boolean"
                                },
                                "data": {
                                    "$ref": "#/definitions/Price"
                                },
                                "message": {
                                    "type": "string"
                                }
                            },
                            "type": "object"
                        }
                    }
                }
            },
            "put": {
                "tags": [
                    "Price"
                ],
                "summary": "Update the specified Price in storage",
                "description": "Update Price",
                "produces": [
                    "application/json"
                ],
                "parameters": [
                    {
                        "name": "id",
                        "in": "path",
                        "description": "id of Price",
                        "required": true,
                        "type": "integer"
                    },
                    {
                        "name": "body",
                        "in": "body",
                        "description": "Price that should be updated",
                        "required": false,
                        "schema": {
                            "$ref": "#/definitions/Price"
                        }
                    }
                ],
                "responses": {
                    "200": {
                        "description": "successful operation",
                        "schema": {
                            "properties": {
                                "success": {
                                    "type": "boolean"
                                },
                                "data": {
                                    "$ref": "#/definitions/Price"
                                },
                                "message": {
                                    "type": "string"
                                }
                            },
                            "type": "object"
                        }
                    }
                }
            },
            "delete": {
                "tags": [
                    "Price"
                ],
                "summary": "Remove the specified Price from storage",
                "description": "Delete Price",
                "produces": [
                    "application/json"
                ],
                "parameters": [
                    {
                        "name": "id",
                        "in": "path",
                        "description": "id of Price",
                        "required": true,
                        "type": "integer"
                    }
                ],
                "responses": {
                    "200": {
                        "description": "successful operation",
                        "schema": {
                            "properties": {
                                "success": {
                                    "type": "boolean"
                                },
                                "data": {
                                    "type": "string"
                                },
                                "message": {
                                    "type": "string"
                                }
                            },
                            "type": "object"
                        }
                    }
                }
            }
        },
        "/price_to_presets": {
            "get": {
                "tags": [
                    "PriceToPreset"
                ],
                "summary": "Get a listing of the PriceToPresets.",
                "description": "Get all PriceToPresets",
                "produces": [
                    "application/json"
                ],
                "responses": {
                    "200": {
                        "description": "successful operation",
                        "schema": {
                            "properties": {
                                "success": {
                                    "type": "boolean"
                                },
                                "data": {
                                    "type": "array",
                                    "items": {
                                        "$ref": "#/definitions/PriceToPreset"
                                    }
                                },
                                "message": {
                                    "type": "string"
                                }
                            },
                            "type": "object"
                        }
                    }
                }
            },
            "post": {
                "tags": [
                    "PriceToPreset"
                ],
                "summary": "Store a newly created PriceToPreset in storage",
                "description": "Store PriceToPreset",
                "produces": [
                    "application/json"
                ],
                "parameters": [
                    {
                        "name": "body",
                        "in": "body",
                        "description": "PriceToPreset that should be stored",
                        "required": false,
                        "schema": {
                            "$ref": "#/definitions/PriceToPreset"
                        }
                    }
                ],
                "responses": {
                    "200": {
                        "description": "successful operation",
                        "schema": {
                            "properties": {
                                "success": {
                                    "type": "boolean"
                                },
                                "data": {
                                    "$ref": "#/definitions/PriceToPreset"
                                },
                                "message": {
                                    "type": "string"
                                }
                            },
                            "type": "object"
                        }
                    }
                }
            }
        },
        "/price_to_presets/{id}": {
            "get": {
                "tags": [
                    "PriceToPreset"
                ],
                "summary": "Display the specified PriceToPreset",
                "description": "Get PriceToPreset",
                "produces": [
                    "application/json"
                ],
                "parameters": [
                    {
                        "name": "id",
                        "in": "path",
                        "description": "id of PriceToPreset",
                        "required": true,
                        "type": "integer"
                    }
                ],
                "responses": {
                    "200": {
                        "description": "successful operation",
                        "schema": {
                            "properties": {
                                "success": {
                                    "type": "boolean"
                                },
                                "data": {
                                    "$ref": "#/definitions/PriceToPreset"
                                },
                                "message": {
                                    "type": "string"
                                }
                            },
                            "type": "object"
                        }
                    }
                }
            },
            "put": {
                "tags": [
                    "PriceToPreset"
                ],
                "summary": "Update the specified PriceToPreset in storage",
                "description": "Update PriceToPreset",
                "produces": [
                    "application/json"
                ],
                "parameters": [
                    {
                        "name": "id",
                        "in": "path",
                        "description": "id of PriceToPreset",
                        "required": true,
                        "type": "integer"
                    },
                    {
                        "name": "body",
                        "in": "body",
                        "description": "PriceToPreset that should be updated",
                        "required": false,
                        "schema": {
                            "$ref": "#/definitions/PriceToPreset"
                        }
                    }
                ],
                "responses": {
                    "200": {
                        "description": "successful operation",
                        "schema": {
                            "properties": {
                                "success": {
                                    "type": "boolean"
                                },
                                "data": {
                                    "$ref": "#/definitions/PriceToPreset"
                                },
                                "message": {
                                    "type": "string"
                                }
                            },
                            "type": "object"
                        }
                    }
                }
            },
            "delete": {
                "tags": [
                    "PriceToPreset"
                ],
                "summary": "Remove the specified PriceToPreset from storage",
                "description": "Delete PriceToPreset",
                "produces": [
                    "application/json"
                ],
                "parameters": [
                    {
                        "name": "id",
                        "in": "path",
                        "description": "id of PriceToPreset",
                        "required": true,
                        "type": "integer"
                    }
                ],
                "responses": {
                    "200": {
                        "description": "successful operation",
                        "schema": {
                            "properties": {
                                "success": {
                                    "type": "boolean"
                                },
                                "data": {
                                    "type": "string"
                                },
                                "message": {
                                    "type": "string"
                                }
                            },
                            "type": "object"
                        }
                    }
                }
            }
        },
        "/prices_to_bids": {
            "get": {
                "tags": [
                    "PricesToBids"
                ],
                "summary": "Get a listing of the PricesToBids.",
                "description": "Get all PricesToBids",
                "produces": [
                    "application/json"
                ],
                "responses": {
                    "200": {
                        "description": "successful operation",
                        "schema": {
                            "properties": {
                                "success": {
                                    "type": "boolean"
                                },
                                "data": {
                                    "type": "array",
                                    "items": {
                                        "$ref": "#/definitions/PricesToBids"
                                    }
                                },
                                "message": {
                                    "type": "string"
                                }
                            },
                            "type": "object"
                        }
                    }
                }
            },
            "post": {
                "tags": [
                    "PricesToBids"
                ],
                "summary": "Store a newly created PricesToBids in storage",
                "description": "Store PricesToBids",
                "produces": [
                    "application/json"
                ],
                "parameters": [
                    {
                        "name": "body",
                        "in": "body",
                        "description": "PricesToBids that should be stored",
                        "required": false,
                        "schema": {
                            "$ref": "#/definitions/PricesToBids"
                        }
                    }
                ],
                "responses": {
                    "200": {
                        "description": "successful operation",
                        "schema": {
                            "properties": {
                                "success": {
                                    "type": "boolean"
                                },
                                "data": {
                                    "$ref": "#/definitions/PricesToBids"
                                },
                                "message": {
                                    "type": "string"
                                }
                            },
                            "type": "object"
                        }
                    }
                }
            }
        },
        "/prices_to_bids/{id}": {
            "get": {
                "tags": [
                    "PricesToBids"
                ],
                "summary": "Display the specified PricesToBids",
                "description": "Get PricesToBids",
                "produces": [
                    "application/json"
                ],
                "parameters": [
                    {
                        "name": "id",
                        "in": "path",
                        "description": "id of PricesToBids",
                        "required": true,
                        "type": "integer"
                    }
                ],
                "responses": {
                    "200": {
                        "description": "successful operation",
                        "schema": {
                            "properties": {
                                "success": {
                                    "type": "boolean"
                                },
                                "data": {
                                    "$ref": "#/definitions/PricesToBids"
                                },
                                "message": {
                                    "type": "string"
                                }
                            },
                            "type": "object"
                        }
                    }
                }
            },
            "put": {
                "tags": [
                    "PricesToBids"
                ],
                "summary": "Update the specified PricesToBids in storage",
                "description": "Update PricesToBids",
                "produces": [
                    "application/json"
                ],
                "parameters": [
                    {
                        "name": "id",
                        "in": "path",
                        "description": "id of PricesToBids",
                        "required": true,
                        "type": "integer"
                    },
                    {
                        "name": "body",
                        "in": "body",
                        "description": "PricesToBids that should be updated",
                        "required": false,
                        "schema": {
                            "$ref": "#/definitions/PricesToBids"
                        }
                    }
                ],
                "responses": {
                    "200": {
                        "description": "successful operation",
                        "schema": {
                            "properties": {
                                "success": {
                                    "type": "boolean"
                                },
                                "data": {
                                    "$ref": "#/definitions/PricesToBids"
                                },
                                "message": {
                                    "type": "string"
                                }
                            },
                            "type": "object"
                        }
                    }
                }
            },
            "delete": {
                "tags": [
                    "PricesToBids"
                ],
                "summary": "Remove the specified PricesToBids from storage",
                "description": "Delete PricesToBids",
                "produces": [
                    "application/json"
                ],
                "parameters": [
                    {
                        "name": "id",
                        "in": "path",
                        "description": "id of PricesToBids",
                        "required": true,
                        "type": "integer"
                    }
                ],
                "responses": {
                    "200": {
                        "description": "successful operation",
                        "schema": {
                            "properties": {
                                "success": {
                                    "type": "boolean"
                                },
                                "data": {
                                    "type": "string"
                                },
                                "message": {
                                    "type": "string"
                                }
                            },
                            "type": "object"
                        }
                    }
                }
            }
        },
        "/projects": {
            "get": {
                "tags": [
                    "Project"
                ],
                "summary": "Get a listing of the Projects.",
                "description": "Get all Projects",
                "produces": [
                    "application/json"
                ],
                "responses": {
                    "200": {
                        "description": "successful operation",
                        "schema": {
                            "properties": {
                                "success": {
                                    "type": "boolean"
                                },
                                "data": {
                                    "type": "array",
                                    "items": {
                                        "$ref": "#/definitions/Project"
                                    }
                                },
                                "message": {
                                    "type": "string"
                                }
                            },
                            "type": "object"
                        }
                    }
                }
            },
            "post": {
                "tags": [
                    "Project"
                ],
                "summary": "Store a newly created Project in storage",
                "description": "Store Project",
                "produces": [
                    "application/json"
                ],
                "parameters": [
                    {
                        "name": "body",
                        "in": "body",
                        "description": "Project that should be stored",
                        "required": false,
                        "schema": {
                            "$ref": "#/definitions/Project"
                        }
                    }
                ],
                "responses": {
                    "200": {
                        "description": "successful operation",
                        "schema": {
                            "properties": {
                                "success": {
                                    "type": "boolean"
                                },
                                "data": {
                                    "$ref": "#/definitions/Project"
                                },
                                "message": {
                                    "type": "string"
                                }
                            },
                            "type": "object"
                        }
                    }
                }
            }
        },
        "/projects/{id}": {
            "get": {
                "tags": [
                    "Project"
                ],
                "summary": "Display the specified Project",
                "description": "Get Project",
                "produces": [
                    "application/json"
                ],
                "parameters": [
                    {
                        "name": "id",
                        "in": "path",
                        "description": "id of Project",
                        "required": true,
                        "type": "integer"
                    }
                ],
                "responses": {
                    "200": {
                        "description": "successful operation",
                        "schema": {
                            "properties": {
                                "success": {
                                    "type": "boolean"
                                },
                                "data": {
                                    "$ref": "#/definitions/Project"
                                },
                                "message": {
                                    "type": "string"
                                }
                            },
                            "type": "object"
                        }
                    }
                }
            },
            "put": {
                "tags": [
                    "Project"
                ],
                "summary": "Update the specified Project in storage",
                "description": "Update Project",
                "produces": [
                    "application/json"
                ],
                "parameters": [
                    {
                        "name": "id",
                        "in": "path",
                        "description": "id of Project",
                        "required": true,
                        "type": "integer"
                    },
                    {
                        "name": "body",
                        "in": "body",
                        "description": "Project that should be updated",
                        "required": false,
                        "schema": {
                            "$ref": "#/definitions/Project"
                        }
                    }
                ],
                "responses": {
                    "200": {
                        "description": "successful operation",
                        "schema": {
                            "properties": {
                                "success": {
                                    "type": "boolean"
                                },
                                "data": {
                                    "$ref": "#/definitions/Project"
                                },
                                "message": {
                                    "type": "string"
                                }
                            },
                            "type": "object"
                        }
                    }
                }
            },
            "delete": {
                "tags": [
                    "Project"
                ],
                "summary": "Remove the specified Project from storage",
                "description": "Delete Project",
                "produces": [
                    "application/json"
                ],
                "parameters": [
                    {
                        "name": "id",
                        "in": "path",
                        "description": "id of Project",
                        "required": true,
                        "type": "integer"
                    }
                ],
                "responses": {
                    "200": {
                        "description": "successful operation",
                        "schema": {
                            "properties": {
                                "success": {
                                    "type": "boolean"
                                },
                                "data": {
                                    "type": "string"
                                },
                                "message": {
                                    "type": "string"
                                }
                            },
                            "type": "object"
                        }
                    }
                }
            }
        },
        "/promo_codes": {
            "get": {
                "tags": [
                    "PromoCode"
                ],
                "summary": "Get a listing of the PromoCodes.",
                "description": "Get all PromoCodes",
                "produces": [
                    "application/json"
                ],
                "responses": {
                    "200": {
                        "description": "successful operation",
                        "schema": {
                            "properties": {
                                "success": {
                                    "type": "boolean"
                                },
                                "data": {
                                    "type": "array",
                                    "items": {
                                        "$ref": "#/definitions/PromoCode"
                                    }
                                },
                                "message": {
                                    "type": "string"
                                }
                            },
                            "type": "object"
                        }
                    }
                }
            },
            "post": {
                "tags": [
                    "PromoCode"
                ],
                "summary": "Store a newly created PromoCode in storage",
                "description": "Store PromoCode",
                "produces": [
                    "application/json"
                ],
                "parameters": [
                    {
                        "name": "body",
                        "in": "body",
                        "description": "PromoCode that should be stored",
                        "required": false,
                        "schema": {
                            "$ref": "#/definitions/PromoCode"
                        }
                    }
                ],
                "responses": {
                    "200": {
                        "description": "successful operation",
                        "schema": {
                            "properties": {
                                "success": {
                                    "type": "boolean"
                                },
                                "data": {
                                    "$ref": "#/definitions/PromoCode"
                                },
                                "message": {
                                    "type": "string"
                                }
                            },
                            "type": "object"
                        }
                    }
                }
            }
        },
        "/promo_codes/{id}": {
            "get": {
                "tags": [
                    "PromoCode"
                ],
                "summary": "Display the specified PromoCode",
                "description": "Get PromoCode",
                "produces": [
                    "application/json"
                ],
                "parameters": [
                    {
                        "name": "id",
                        "in": "path",
                        "description": "id of PromoCode",
                        "required": true,
                        "type": "integer"
                    }
                ],
                "responses": {
                    "200": {
                        "description": "successful operation",
                        "schema": {
                            "properties": {
                                "success": {
                                    "type": "boolean"
                                },
                                "data": {
                                    "$ref": "#/definitions/PromoCode"
                                },
                                "message": {
                                    "type": "string"
                                }
                            },
                            "type": "object"
                        }
                    }
                }
            },
            "put": {
                "tags": [
                    "PromoCode"
                ],
                "summary": "Update the specified PromoCode in storage",
                "description": "Update PromoCode",
                "produces": [
                    "application/json"
                ],
                "parameters": [
                    {
                        "name": "id",
                        "in": "path",
                        "description": "id of PromoCode",
                        "required": true,
                        "type": "integer"
                    },
                    {
                        "name": "body",
                        "in": "body",
                        "description": "PromoCode that should be updated",
                        "required": false,
                        "schema": {
                            "$ref": "#/definitions/PromoCode"
                        }
                    }
                ],
                "responses": {
                    "200": {
                        "description": "successful operation",
                        "schema": {
                            "properties": {
                                "success": {
                                    "type": "boolean"
                                },
                                "data": {
                                    "$ref": "#/definitions/PromoCode"
                                },
                                "message": {
                                    "type": "string"
                                }
                            },
                            "type": "object"
                        }
                    }
                }
            },
            "delete": {
                "tags": [
                    "PromoCode"
                ],
                "summary": "Remove the specified PromoCode from storage",
                "description": "Delete PromoCode",
                "produces": [
                    "application/json"
                ],
                "parameters": [
                    {
                        "name": "id",
                        "in": "path",
                        "description": "id of PromoCode",
                        "required": true,
                        "type": "integer"
                    }
                ],
                "responses": {
                    "200": {
                        "description": "successful operation",
                        "schema": {
                            "properties": {
                                "success": {
                                    "type": "boolean"
                                },
                                "data": {
                                    "type": "string"
                                },
                                "message": {
                                    "type": "string"
                                }
                            },
                            "type": "object"
                        }
                    }
                }
            }
        },
        "/services": {
            "get": {
                "tags": [
                    "Service"
                ],
                "summary": "Get a listing of the Services.",
                "description": "Get all Services",
                "produces": [
                    "application/json"
                ],
                "responses": {
                    "200": {
                        "description": "successful operation",
                        "schema": {
                            "properties": {
                                "success": {
                                    "type": "boolean"
                                },
                                "data": {
                                    "type": "array",
                                    "items": {
                                        "$ref": "#/definitions/Service"
                                    }
                                },
                                "message": {
                                    "type": "string"
                                }
                            },
                            "type": "object"
                        }
                    }
                }
            },
            "post": {
                "tags": [
                    "Service"
                ],
                "summary": "Store a newly created Service in storage",
                "description": "Store Service",
                "produces": [
                    "application/json"
                ],
                "parameters": [
                    {
                        "name": "body",
                        "in": "body",
                        "description": "Service that should be stored",
                        "required": false,
                        "schema": {
                            "$ref": "#/definitions/Service"
                        }
                    }
                ],
                "responses": {
                    "200": {
                        "description": "successful operation",
                        "schema": {
                            "properties": {
                                "success": {
                                    "type": "boolean"
                                },
                                "data": {
                                    "$ref": "#/definitions/Service"
                                },
                                "message": {
                                    "type": "string"
                                }
                            },
                            "type": "object"
                        }
                    }
                }
            }
        },
        "/services/{id}": {
            "get": {
                "tags": [
                    "Service"
                ],
                "summary": "Display the specified Service",
                "description": "Get Service",
                "produces": [
                    "application/json"
                ],
                "parameters": [
                    {
                        "name": "id",
                        "in": "path",
                        "description": "id of Service",
                        "required": true,
                        "type": "integer"
                    }
                ],
                "responses": {
                    "200": {
                        "description": "successful operation",
                        "schema": {
                            "properties": {
                                "success": {
                                    "type": "boolean"
                                },
                                "data": {
                                    "$ref": "#/definitions/Service"
                                },
                                "message": {
                                    "type": "string"
                                }
                            },
                            "type": "object"
                        }
                    }
                }
            },
            "put": {
                "tags": [
                    "Service"
                ],
                "summary": "Update the specified Service in storage",
                "description": "Update Service",
                "produces": [
                    "application/json"
                ],
                "parameters": [
                    {
                        "name": "id",
                        "in": "path",
                        "description": "id of Service",
                        "required": true,
                        "type": "integer"
                    },
                    {
                        "name": "body",
                        "in": "body",
                        "description": "Service that should be updated",
                        "required": false,
                        "schema": {
                            "$ref": "#/definitions/Service"
                        }
                    }
                ],
                "responses": {
                    "200": {
                        "description": "successful operation",
                        "schema": {
                            "properties": {
                                "success": {
                                    "type": "boolean"
                                },
                                "data": {
                                    "$ref": "#/definitions/Service"
                                },
                                "message": {
                                    "type": "string"
                                }
                            },
                            "type": "object"
                        }
                    }
                }
            },
            "delete": {
                "tags": [
                    "Service"
                ],
                "summary": "Remove the specified Service from storage",
                "description": "Delete Service",
                "produces": [
                    "application/json"
                ],
                "parameters": [
                    {
                        "name": "id",
                        "in": "path",
                        "description": "id of Service",
                        "required": true,
                        "type": "integer"
                    }
                ],
                "responses": {
                    "200": {
                        "description": "successful operation",
                        "schema": {
                            "properties": {
                                "success": {
                                    "type": "boolean"
                                },
                                "data": {
                                    "type": "string"
                                },
                                "message": {
                                    "type": "string"
                                }
                            },
                            "type": "object"
                        }
                    }
                }
            }
        },
        "/statuses": {
            "get": {
                "tags": [
                    "Status"
                ],
                "summary": "Get a listing of the Statuses.",
                "description": "Get all Statuses",
                "produces": [
                    "application/json"
                ],
                "responses": {
                    "200": {
                        "description": "successful operation",
                        "schema": {
                            "properties": {
                                "success": {
                                    "type": "boolean"
                                },
                                "data": {
                                    "type": "array",
                                    "items": {
                                        "$ref": "#/definitions/Status"
                                    }
                                },
                                "message": {
                                    "type": "string"
                                }
                            },
                            "type": "object"
                        }
                    }
                }
            },
            "post": {
                "tags": [
                    "Status"
                ],
                "summary": "Store a newly created Status in storage",
                "description": "Store Status",
                "produces": [
                    "application/json"
                ],
                "parameters": [
                    {
                        "name": "body",
                        "in": "body",
                        "description": "Status that should be stored",
                        "required": false,
                        "schema": {
                            "$ref": "#/definitions/Status"
                        }
                    }
                ],
                "responses": {
                    "200": {
                        "description": "successful operation",
                        "schema": {
                            "properties": {
                                "success": {
                                    "type": "boolean"
                                },
                                "data": {
                                    "$ref": "#/definitions/Status"
                                },
                                "message": {
                                    "type": "string"
                                }
                            },
                            "type": "object"
                        }
                    }
                }
            }
        },
        "/statuses/{id}": {
            "get": {
                "tags": [
                    "Status"
                ],
                "summary": "Display the specified Status",
                "description": "Get Status",
                "produces": [
                    "application/json"
                ],
                "parameters": [
                    {
                        "name": "id",
                        "in": "path",
                        "description": "id of Status",
                        "required": true,
                        "type": "integer"
                    }
                ],
                "responses": {
                    "200": {
                        "description": "successful operation",
                        "schema": {
                            "properties": {
                                "success": {
                                    "type": "boolean"
                                },
                                "data": {
                                    "$ref": "#/definitions/Status"
                                },
                                "message": {
                                    "type": "string"
                                }
                            },
                            "type": "object"
                        }
                    }
                }
            },
            "put": {
                "tags": [
                    "Status"
                ],
                "summary": "Update the specified Status in storage",
                "description": "Update Status",
                "produces": [
                    "application/json"
                ],
                "parameters": [
                    {
                        "name": "id",
                        "in": "path",
                        "description": "id of Status",
                        "required": true,
                        "type": "integer"
                    },
                    {
                        "name": "body",
                        "in": "body",
                        "description": "Status that should be updated",
                        "required": false,
                        "schema": {
                            "$ref": "#/definitions/Status"
                        }
                    }
                ],
                "responses": {
                    "200": {
                        "description": "successful operation",
                        "schema": {
                            "properties": {
                                "success": {
                                    "type": "boolean"
                                },
                                "data": {
                                    "$ref": "#/definitions/Status"
                                },
                                "message": {
                                    "type": "string"
                                }
                            },
                            "type": "object"
                        }
                    }
                }
            },
            "delete": {
                "tags": [
                    "Status"
                ],
                "summary": "Remove the specified Status from storage",
                "description": "Delete Status",
                "produces": [
                    "application/json"
                ],
                "parameters": [
                    {
                        "name": "id",
                        "in": "path",
                        "description": "id of Status",
                        "required": true,
                        "type": "integer"
                    }
                ],
                "responses": {
                    "200": {
                        "description": "successful operation",
                        "schema": {
                            "properties": {
                                "success": {
                                    "type": "boolean"
                                },
                                "data": {
                                    "type": "string"
                                },
                                "message": {
                                    "type": "string"
                                }
                            },
                            "type": "object"
                        }
                    }
                }
            }
        },
        "/users": {
            "get": {
                "tags": [
                    "User"
                ],
                "summary": "Get a listing of the Users.",
                "description": "Get all Users",
                "produces": [
                    "application/json"
                ],
                "responses": {
                    "200": {
                        "description": "successful operation",
                        "schema": {
                            "properties": {
                                "success": {
                                    "type": "boolean"
                                },
                                "data": {
                                    "type": "array",
                                    "items": {
                                        "$ref": "#/definitions/User"
                                    }
                                },
                                "message": {
                                    "type": "string"
                                }
                            },
                            "type": "object"
                        }
                    }
                }
            },
            "post": {
                "tags": [
                    "User"
                ],
                "summary": "Store a newly created User in storage",
                "description": "Store User",
                "produces": [
                    "application/json"
                ],
                "parameters": [
                    {
                        "name": "body",
                        "in": "body",
                        "description": "User that should be stored",
                        "required": false,
                        "schema": {
                            "$ref": "#/definitions/User"
                        }
                    }
                ],
                "responses": {
                    "200": {
                        "description": "successful operation",
                        "schema": {
                            "properties": {
                                "success": {
                                    "type": "boolean"
                                },
                                "data": {
                                    "$ref": "#/definitions/User"
                                },
                                "message": {
                                    "type": "string"
                                }
                            },
                            "type": "object"
                        }
                    }
                }
            }
        },
        "/users/{id}": {
            "get": {
                "tags": [
                    "User"
                ],
                "summary": "Display the specified User",
                "description": "Get User",
                "produces": [
                    "application/json"
                ],
                "parameters": [
                    {
                        "name": "id",
                        "in": "path",
                        "description": "id of User",
                        "required": true,
                        "type": "integer"
                    }
                ],
                "responses": {
                    "200": {
                        "description": "successful operation",
                        "schema": {
                            "properties": {
                                "success": {
                                    "type": "boolean"
                                },
                                "data": {
                                    "$ref": "#/definitions/User"
                                },
                                "message": {
                                    "type": "string"
                                }
                            },
                            "type": "object"
                        }
                    }
                }
            },
            "put": {
                "tags": [
                    "User"
                ],
                "summary": "Update the specified User in storage",
                "description": "Update User",
                "produces": [
                    "application/json"
                ],
                "parameters": [
                    {
                        "name": "id",
                        "in": "path",
                        "description": "id of User",
                        "required": true,
                        "type": "integer"
                    },
                    {
                        "name": "body",
                        "in": "body",
                        "description": "User that should be updated",
                        "required": false,
                        "schema": {
                            "$ref": "#/definitions/User"
                        }
                    }
                ],
                "responses": {
                    "200": {
                        "description": "successful operation",
                        "schema": {
                            "properties": {
                                "success": {
                                    "type": "boolean"
                                },
                                "data": {
                                    "$ref": "#/definitions/User"
                                },
                                "message": {
                                    "type": "string"
                                }
                            },
                            "type": "object"
                        }
                    }
                }
            },
            "delete": {
                "tags": [
                    "User"
                ],
                "summary": "Remove the specified User from storage",
                "description": "Delete User",
                "produces": [
                    "application/json"
                ],
                "parameters": [
                    {
                        "name": "id",
                        "in": "path",
                        "description": "id of User",
                        "required": true,
                        "type": "integer"
                    }
                ],
                "responses": {
                    "200": {
                        "description": "successful operation",
                        "schema": {
                            "properties": {
                                "success": {
                                    "type": "boolean"
                                },
                                "data": {
                                    "type": "string"
                                },
                                "message": {
                                    "type": "string"
                                }
                            },
                            "type": "object"
                        }
                    }
                }
            }
        }
    },
    "definitions": {
        "Bid": {
            "required": [
                "title",
                "description",
                "author_email",
                "cost"
            ],
            "properties": {
                "id": {
                    "description": "id",
                    "type": "integer",
                    "format": "int32"
                },
                "description": {
                    "description": "description",
                    "type": "string"
                },
                "email": {
                    "description": "email",
                    "type": "string"
                },
                "phone": {
                    "description": "phone",
                    "type": "string"
                },
                "status_id": {
                    "description": "status_id",
                    "type": "integer",
                    "format": "int32"
                },
                "status_comment": {
                    "description": "status_comment",
                    "type": "string"
                },
                "responsible_id": {
                    "description": "responsible_id",
                    "type": "integer",
                    "format": "int32"
                },
                "service_id": {
                    "description": "service_id",
                    "type": "integer",
                    "format": "int32"
                },
                "cost": {
                    "description": "cost",
                    "type": "integer",
                    "format": "int32"
                },
                "hash": {
                    "description": "hash",
                    "type": "string"
                },
                "item": {
                    "description": "\u0438\u043d\u0442\u0435\u0440\u0435\u0441\u0443\u044e\u0449\u0438\u0439 \u043f\u0440\u0435\u0434\u043c\u0435\u0442 \u043a \u0437\u0430\u043a\u0430\u0437\u0443",
                    "type": "string"
                },
                "promo_code_id": {
                    "description": "promo_code_id",
                    "type": "integer",
                    "format": "int32"
                },
                "created_at": {
                    "description": "created_at",
                    "type": "string",
                    "format": "date-time"
                },
                "updated_at": {
                    "description": "updated_at",
                    "type": "string",
                    "format": "date-time"
                }
            }
        },
        "Preset": {
            "required": [
                "name",
                "service_id"
            ],
            "properties": {
                "id": {
                    "description": "id",
                    "type": "integer",
                    "format": "int32"
                },
                "name": {
                    "description": "name",
                    "type": "string"
                },
                "description": {
                    "description": "description",
                    "type": "string"
                },
                "service_id": {
                    "description": "service_id",
                    "type": "integer",
                    "format": "int32"
                },
                "created_at": {
                    "description": "created_at",
                    "type": "string",
                    "format": "date-time"
                },
                "updated_at": {
                    "description": "updated_at",
                    "type": "string",
                    "format": "date-time"
                }
            }
        },
        "Price": {
            "required": [
                "name",
                "priority"
            ],
            "properties": {
                "id": {
                    "description": "id",
                    "type": "integer",
                    "format": "int32"
                },
                "name": {
                    "description": "name",
                    "type": "string"
                },
                "cost": {
                    "description": "cost",
                    "type": "integer",
                    "format": "int32"
                },
                "parent_id": {
                    "description": "parent_id",
                    "type": "integer",
                    "format": "int32"
                },
                "service_id": {
                    "description": "service_id",
                    "type": "integer",
                    "format": "int32"
                },
                "created_at": {
                    "description": "created_at",
                    "type": "string",
                    "format": "date-time"
                },
                "updated_at": {
                    "description": "updated_at",
                    "type": "string",
                    "format": "date-time"
                }
            }
        },
        "PriceToPreset": {
            "required": [
                "preset_id",
                "price_id"
            ],
            "properties": {
                "id": {
                    "description": "id",
                    "type": "integer",
                    "format": "int32"
                },
                "preset_id": {
                    "description": "preset_id",
                    "type": "integer",
                    "format": "int32"
                },
                "price_id": {
                    "description": "price_id",
                    "type": "integer",
                    "format": "int32"
                },
                "created_at": {
                    "description": "created_at",
                    "type": "string",
                    "format": "date-time"
                },
                "updated_at": {
                    "description": "updated_at",
                    "type": "string",
                    "format": "date-time"
                }
            }
        },
        "PricesToBids": {
            "required": [
                "price_id",
                "bid_id"
            ],
            "properties": {
                "id": {
                    "description": "id",
                    "type": "integer",
                    "format": "int32"
                },
                "price_id": {
                    "description": "price_id",
                    "type": "integer",
                    "format": "int32"
                },
                "bid_id": {
                    "description": "bid_id",
                    "type": "integer",
                    "format": "int32"
                },
                "created_at": {
                    "description": "created_at",
                    "type": "string",
                    "format": "date-time"
                },
                "updated_at": {
                    "description": "updated_at",
                    "type": "string",
                    "format": "date-time"
                }
            }
        },
        "Project": {
            "required": [
                "title",
                "description",
                "deadline"
            ],
            "properties": {
                "id": {
                    "description": "id",
                    "type": "integer",
                    "format": "int32"
                },
                "title": {
                    "description": "title",
                    "type": "string"
                },
                "subtitle": {
                    "description": "subtitle",
                    "type": "string"
                },
                "description": {
                    "description": "description",
                    "type": "string"
                },
                "deadline": {
                    "description": "deadline",
                    "type": "string"
                },
                "public": {
                    "description": "public",
                    "type": "boolean"
                },
                "created_at": {
                    "description": "created_at",
                    "type": "string",
                    "format": "date-time"
                },
                "updated_at": {
                    "description": "updated_at",
                    "type": "string",
                    "format": "date-time"
                }
            }
        },
        "PromoCode": {
            "required": [
                "name",
                "code",
                "date_start",
                "date_end"
            ],
            "properties": {
                "id": {
                    "description": "id",
                    "type": "integer",
                    "format": "int32"
                },
                "name": {
                    "description": "name",
                    "type": "string"
                },
                "description": {
                    "description": "description",
                    "type": "string"
                },
                "code": {
                    "description": "code",
                    "type": "string"
                },
                "percentage": {
                    "description": "percentage",
                    "type": "integer",
                    "format": "int32"
                },
                "sum": {
                    "description": "sum",
                    "type": "integer",
                    "format": "int32"
                },
                "date_start": {
                    "description": "date_start",
                    "type": "string",
                    "format": "date-time"
                },
                "date_end": {
                    "description": "date_end",
                    "type": "string",
                    "format": "date-time"
                },
                "created_at": {
                    "description": "created_at",
                    "type": "string",
                    "format": "date-time"
                },
                "updated_at": {
                    "description": "updated_at",
                    "type": "string",
                    "format": "date-time"
                }
            }
        },
        "Service": {
            "required": [
                "name"
            ],
            "properties": {
                "id": {
                    "description": "id",
                    "type": "integer",
                    "format": "int32"
                },
                "name": {
                    "description": "name",
                    "type": "string"
                },
                "tracked": {
                    "description": "tracked",
                    "type": "boolean"
                },
                "default_status_id": {
                    "description": "default_status_id",
                    "type": "integer",
                    "format": "int32"
                },
                "created_at": {
                    "description": "created_at",
                    "type": "string",
                    "format": "date-time"
                },
                "updated_at": {
                    "description": "updated_at",
                    "type": "string",
                    "format": "date-time"
                }
            }
        },
        "Status": {
            "required": [
                "name",
                "ready_percent"
            ],
            "properties": {
                "id": {
                    "description": "id",
                    "type": "integer",
                    "format": "int32"
                },
                "name": {
                    "description": "name",
                    "type": "string"
                },
                "priority": {
                    "description": "priority",
                    "type": "integer",
                    "format": "int32"
                },
                "finishable": {
                    "description": "finishable",
                    "type": "boolean"
                },
                "service_id": {
                    "description": "service_id",
                    "type": "integer",
                    "format": "int32"
                },
                "created_at": {
                    "description": "created_at",
                    "type": "string",
                    "format": "date-time"
                },
                "updated_at": {
                    "description": "updated_at",
                    "type": "string",
                    "format": "date-time"
                }
            }
        },
        "User": {
            "required": [
                "name",
                "email",
                "password",
                "phone"
            ],
            "properties": {
                "id": {
                    "description": "id",
                    "type": "integer",
                    "format": "int32"
                },
                "name": {
                    "description": "name",
                    "type": "string"
                },
                "email": {
                    "description": "email",
                    "type": "string"
                },
                "password": {
                    "description": "password",
                    "type": "string"
                },
                "remember_token": {
                    "description": "remember_token",
                    "type": "string"
                },
                "phone": {
                    "description": "phone",
                    "type": "string"
                },
                "created_at": {
                    "description": "created_at",
                    "type": "string",
                    "format": "date-time"
                },
                "updated_at": {
                    "description": "updated_at",
                    "type": "string",
                    "format": "date-time"
                }
            }
        }
    }
}